{
  "images" : [
    {
      "filename" : "Controls Small - Arrow - Down .png",
      "idiom" : "universal",
      "scale" : "1x"
    },
    {
      "filename" : "Controls Small - Arrow - Down -1.png",
      "idiom" : "universal",
      "scale" : "2x"
    },
    {
      "filename" : "Controls Small - Arrow - Down -2.png",
      "idiom" : "universal",
      "scale" : "3x"
    }
  ],
  "info" : {
    "author" : "xcode",
    "version" : 1
  }
}
