{
  "images" : [
    {
      "idiom" : "universal",
      "filename" : "Screen Shot 2019-03-12 at 16.43.52.png",
      "scale" : "1x"
    },
    {
      "idiom" : "universal",
      "filename" : "Screen Shot 2019-03-12 at 16.43.52-1.png",
      "scale" : "2x"
    },
    {
      "idiom" : "universal",
      "filename" : "Screen Shot 2019-03-12 at 16.43.52-2.png",
      "scale" : "3x"
    }
  ],
  "info" : {
    "version" : 1,
    "author" : "xcode"
  }
}